<?xml version="1.0" encoding="UTF-8" standalone="no"?>
<!-- Created with Inkscape (http://www.inkscape.org/) -->

<svg
   xmlns:dc="http://purl.org/dc/elements/1.1/"
   xmlns:cc="http://creativecommons.org/ns#"
   xmlns:rdf="http://www.w3.org/1999/02/22-rdf-syntax-ns#"
   xmlns:svg="http://www.w3.org/2000/svg"
   xmlns="http://www.w3.org/2000/svg"
   xmlns:xlink="http://www.w3.org/1999/xlink"
   xmlns:sodipodi="http://sodipodi.sourceforge.net/DTD/sodipodi-0.dtd"
   xmlns:inkscape="http://www.inkscape.org/namespaces/inkscape"
   id="svg2"
   version="1.1"
   inkscape:version="0.92.2 5c3e80d, 2017-08-06"
   width="2481"
   height="3503"
   sodipodi:docname="E19P01.svg">
  <metadata
     id="metadata8">
    <rdf:RDF>
      <cc:Work
         rdf:about="">
        <dc:format>image/svg+xml</dc:format>
        <dc:type
           rdf:resource="http://purl.org/dc/dcmitype/StillImage" />
        <dc:title />
      </cc:Work>
    </rdf:RDF>
  </metadata>
  <defs
     id="defs6" />
  <sodipodi:namedview
     pagecolor="#ffffff"
     bordercolor="#666666"
     borderopacity="1"
     objecttolerance="10"
     gridtolerance="10"
     guidetolerance="10"
     inkscape:pageopacity="0"
     inkscape:pageshadow="2"
     inkscape:window-width="1280"
     inkscape:window-height="971"
     id="namedview4"
     showgrid="false"
     inkscape:zoom="0.78"
     inkscape:cx="882.57154"
     inkscape:cy="690.12542"
     inkscape:window-x="0"
     inkscape:window-y="0"
     inkscape:window-maximized="1"
     inkscape:current-layer="layer1"
     showguides="false" />
  <g
     inkscape:groupmode="layer"
     id="layer2"
     inkscape:label="artwork"
     sodipodi:insensitive="true">
    <image
       sodipodi:absref="/run/media/zveryok/Media/Work/Not Done/Translation/lang/uk/../gfx_Pepper-and-Carrot_by-David-Revoy_E19P01.png"
       xlink:href="../gfx_Pepper-and-Carrot_by-David-Revoy_E19P01.png"
       width="2481"
       height="3503"
       id="image10"
       x="0"
       y="0" />
  </g>
  <g
     inkscape:groupmode="layer"
     id="layer3"
     inkscape:label="speechbubbles">
    <path
       style="color:#000000;display:inline;overflow:visible;visibility:visible;fill:#ffffff;fill-opacity:1;fill-rule:nonzero;stroke:none;stroke-width:1.08853233px;marker:none;enable-background:accumulate"
       d="m 1000.5134,1943.1018 c -5.04924,-29.0492 34.5063,-64.0949 177.7122,-56.3491 143.2062,7.7458 171.378,21.3931 175.6078,58.6729 1.7535,15.4557 -36.3883,39.5034 -57.5172,43.3763 -21.1288,3.8728 -108.7204,4.4524 -143.9353,1.3542 -35.2143,-3.0983 -110.7837,-9.8745 -131.9126,-23.817 -21.12891,-13.9423 -17.6071,-20.139 -19.9549,-23.2373 z"
       id="path3365"
       inkscape:connector-curvature="0"
       sodipodi:nodetypes="csssssc" />
    <path
       style="color:#000000;display:inline;overflow:visible;visibility:visible;fill:#ffffff;fill-opacity:1;fill-rule:nonzero;stroke:none;stroke-width:1px;marker:none;enable-background:accumulate"
       d="m 1354.8882,2094.052 c -9.2231,56.4762 -50.9627,81.7237 -85.5996,97.0385 -64.6422,24.257 -132.3823,12.0819 -197.5097,-1.01 -33.7898,-9.3066 -68.5958,-49.4285 -65.0628,-103.6032 3.4144,-48.5612 36.172,-80.2071 67.7453,-84.7181 46.2855,-15.7436 94.557,-23.4129 141.6187,-10.0191 40.4105,7.6471 83.6888,9.72 119.681,39.9237 12.0281,15.9589 16.6495,39.8545 19.1271,62.3882 z"
       id="path3365-3"
       inkscape:connector-curvature="0" />
    <path
       style="fill:#ffffff;stroke:none;stroke-width:0.98397887"
       d="m 1031.6196,2288.7305 c 5.3805,-57.3975 47.4097,-88.4561 109.1006,-96.4508 75.6315,-17.0601 146.1264,-24.8762 221.6003,-8.5298 49.3541,13.5217 89.9157,15.0568 128.2599,53.8691 25.4271,28.4656 34.5823,136.1904 -6.6021,164.1096 -42.8734,40.8181 -157.7563,49.861 -215.881,48.7452 -83.6609,1.6799 -156.9814,-5.7532 -198.2971,-39.7503 -38.6325,-32.6177 -43.4425,-79.5033 -38.1806,-121.993 z"
       id="path3065"
       inkscape:connector-curvature="0"
       sodipodi:nodetypes="cccccccc" />
    <path
       style="display:inline;fill:#ffffff;stroke:none"
       d="m 1639.5841,2318.3167 c -21.9558,36.2988 -64.6442,61.9501 -96.7367,35.7869 -19.4449,-15.8524 -29.1134,-28.291 -29.1134,-28.291 l -6.3679,30.9322 20.7854,19.5483 c 0,0 65.508,31.9103 111.4326,-57.9764 z"
       id="path3063-1"
       inkscape:connector-curvature="0"
       sodipodi:nodetypes="cscccc" />
    <path
       style="color:#000000;display:inline;overflow:visible;visibility:visible;fill:#ffffff;fill-opacity:1;fill-rule:nonzero;stroke:none;stroke-width:1px;marker:none;enable-background:accumulate"
       d="m 1926.3315,2331.5093 c 21.4176,-14.0737 105.7556,-26.1636 189.9883,-24.6873 84.2326,1.4764 164.9638,9.206 214.3157,43.9168 72.7117,51.1404 39.5929,168.0676 1.9332,187.7435 -27.2936,14.2599 -108.9818,27.0544 -187.2219,28.4931 -78.24,1.439 -153.0319,-8.4776 -189.573,-21.3639 -31.536,-11.1214 -77.4828,-41.3858 -81.2344,-114.5815 -1.5311,-29.8742 8.9573,-71.3728 51.7921,-99.5207 z"
       id="path4040"
       inkscape:connector-curvature="0"
       sodipodi:nodetypes="ssssssss" />
    <path
       style="color:#000000;display:inline;overflow:visible;visibility:visible;fill:#ffffff;fill-opacity:1;fill-rule:nonzero;stroke:none;stroke-width:1px;marker:none;enable-background:accumulate"
       d="m 2091.5868,2309.6031 c -12.6779,-33.6245 -30.9699,-60.7293 -65.977,-55.676 52.3023,-18.546 92.9308,35.3617 103.6224,53.2726 10.6914,17.9109 -37.6454,2.4034 -37.6454,2.4034 z"
       id="path5010"
       inkscape:connector-curvature="0" />
    <path
       style="color:#000000;display:inline;overflow:visible;visibility:visible;fill:#ffffff;fill-opacity:1;fill-rule:nonzero;stroke:none;stroke-width:1px;marker:none;enable-background:accumulate"
       d="m 628.01822,2728.5675 c -0.93662,-25.5576 9.40888,-43.8712 48.74467,-60.5619 39.33597,-16.6906 95.16137,-8.7299 109.80882,-8.1792 68.73665,2.5843 91.76827,11.2145 105.81675,29.9917 14.04857,18.7769 17.63764,14.6511 17.14115,47.1731 -0.4445,29.1161 -4.41537,42.7994 -21.27358,49.0583 -16.85832,6.259 -146.3684,13.4292 -166.30753,13.1503 -19.52192,-0.273 -44.37757,-3.4033 -63.7325,-13.6557 -18.27154,-9.6786 -29.26122,-31.4189 -30.19778,-56.9766 z"
       id="path3373"
       inkscape:connector-curvature="0"
       sodipodi:nodetypes="zsssssssz" />
    <path
       style="color:#000000;display:inline;overflow:visible;visibility:visible;fill:#ffffff;fill-opacity:1;fill-rule:nonzero;stroke:none;stroke-width:0.92873955px;marker:none;enable-background:accumulate"
       d="m 695.6876,2853.9321 c 8.54909,-71.4433 73.60489,-96.2842 259.30527,-100.5518 48.56863,-1.1161 130.38433,7.4337 168.52513,24.0922 38.1406,16.6585 59.8582,73.9993 54.1589,126.3501 -11.3988,104.7015 -130.5028,87.2502 -163.2744,88.4821 -32.77158,1.2319 -258.32315,4.6116 -290.65442,-42.9057 -31.00504,-45.5681 -29.48531,-73.2947 -28.06048,-95.4669 z"
       id="path4546"
       inkscape:connector-curvature="0"
       sodipodi:nodetypes="csssssc" />
    <path
       style="color:#000000;display:inline;overflow:visible;visibility:visible;fill:#ffffff;fill-opacity:1;fill-rule:nonzero;stroke:none;stroke-width:0.97567528px;marker:none;enable-background:accumulate"
       d="m 854.3341,2985.8994 c 31.05134,-42.4872 199.9426,-38.8602 256.1357,-20.4526 56.1931,18.4073 80.4857,23.4094 79.7158,61.358 -0.7209,35.5277 -18.8422,68.7281 -47.5923,78.9545 -28.7499,10.2263 -96.1574,10.0146 -124.9074,10.0146 -28.74986,0 -120.52596,-6.509 -143.74979,-21.4754 -22.21588,-14.3168 -50.6535,-65.9121 -19.60201,-108.3991 z"
       id="path3330"
       inkscape:connector-curvature="0"
       sodipodi:nodetypes="zsssssz" />
    <path
       style="color:#000000;display:inline;overflow:visible;visibility:visible;fill:#ffffff;fill-opacity:1;fill-rule:nonzero;stroke:none;stroke-width:1px;marker:none;enable-background:accumulate"
       d="m 929.99953,3158.9683 c 39.78505,-10.9584 53.20162,-17.1208 58.43434,-65.1641 5.23266,-48.0433 23.16173,-44.6696 23.16173,-44.6696 l 14.7504,30.3838 c 0,0 -18.3423,101.2684 -96.34647,79.4499 z"
       id="path3072"
       inkscape:connector-curvature="0" />
    <path
       style="fill:#ffffff;fill-rule:evenodd;stroke:none;stroke-width:0.98171639px;stroke-linecap:butt;stroke-linejoin:miter;stroke-opacity:1"
       d="m 1891.2657,3240.5559 c 25.711,2.1292 59.1957,-8.4697 38.4094,-40.5261 37.4102,25.6861 72.8487,30.4974 110.1573,2.3772 -5.4538,28.3882 55.5487,30.5784 76.451,11.7939 -6.3776,29.5833 22.9485,30.7245 47.454,31.6638 -51.839,36.167 -24.6178,47.6692 -4.1916,61.2914 -50.9452,-10.0785 -38.6239,10.3423 -44.7089,21.8898 -43.7033,-26.1637 -75.4859,-19.9542 -100.595,4.3779 -13.1323,-13.2325 -17.2544,-40.5816 -65.6661,1.4593 17.8022,-36.2934 -5.5325,-32.484 -43.3118,-14.5931 8.6919,-8.3427 45.2756,-30.6317 -13.9983,-28.6579 9.2559,-2.938 16.6831,-6.1364 21.9176,-9.6472 5.2345,-3.5109 -28.4244,-12.8837 -27.9392,-17.071 0.4853,-4.1872 35.1148,-3.1887 30.1229,-8.1561 -4.9919,-4.9674 -12.9044,-10.3507 -24.1013,-16.2019 z"
       id="path4584"
       inkscape:connector-curvature="0"
       sodipodi:nodetypes="cccccccccccsssc" />
    <path
       style="color:#000000;display:inline;overflow:visible;visibility:visible;fill:#ffffff;fill-opacity:1;fill-rule:nonzero;stroke:none;stroke-width:1px;marker:none;enable-background:accumulate"
       d="m 1929.0839,3276.1051 c -26.7744,0.1934 -96.6935,-12.0611 -103.8888,-13.0148 6.0705,-5.4371 10.1298,-10.8932 13.4021,-15.1162 -13.7156,-0.9263 -59.5001,-2.596 -79.7676,1.5975 50.7453,-11.4228 73.8083,-12.6417 95.8809,-9.8645 -2.9601,5.998 -5.8701,9.4267 -7.3188,12.6033 18.7307,6.708 117.9634,8.8349 106.078,1.4065 z"
       id="path5066"
       inkscape:connector-curvature="0"
       sodipodi:nodetypes="cccccccc" />
  </g>
  <g
     inkscape:groupmode="layer"
     id="layer1"
     inkscape:label="txt"
     style="display:inline">
    <text
       xml:space="preserve"
       style="font-style:normal;font-variant:normal;font-weight:normal;font-stretch:normal;line-height:0%;font-family:Lavi;-inkscape-font-specification:Lavi;text-align:center;letter-spacing:0px;word-spacing:0px;text-anchor:middle;fill:#000000;fill-opacity:1;stroke:none"
       x="1177.4561"
       y="1950.6425"
       id="text4246-3-9"><tspan
         sodipodi:role="line"
         style="font-style:normal;font-variant:normal;font-weight:normal;font-stretch:normal;font-size:45px;line-height:1.25;font-family:Neucha;-inkscape-font-specification:Neucha"
         x="1177.4561"
         y="1950.6425"
         id="tspan4183-8">Я пійду в будинок</tspan></text>
    <text
       xml:space="preserve"
       style="font-style:normal;font-variant:normal;font-weight:normal;font-stretch:normal;font-size:42.48102188px;line-height:0%;font-family:Lavi;-inkscape-font-specification:Lavi;text-align:center;letter-spacing:0px;word-spacing:0px;text-anchor:middle;fill:#000000;fill-opacity:1;stroke:none;stroke-width:1.61365008"
       x="2663.4595"
       y="2723.0522"
       id="text4246"
       transform="scale(1.0648107,0.93913404)"><text
         xml:space="preserve"
         style="font-style:normal;font-variant:normal;font-weight:normal;font-stretch:normal;font-size:42.48102188px;line-height:125%;font-family:Neucha;-inkscape-font-specification:Neucha;text-align:center;letter-spacing:0px;word-spacing:0px;text-anchor:middle;fill:#000000;fill-opacity:1;stroke:none;stroke-width:1.61365008"
         x="1110.8016"
         y="2186.936"
         id="text4246-3">Який сенс<tspan
   sodipodi:role="line"
   style="font-style:normal;font-variant:normal;font-weight:normal;font-stretch:normal;font-size:42.48102188px;font-family:Neucha;-inkscape-font-specification:Neucha;stroke-width:1.61365008"
   x="1110.8016"
   y="2186.936"
   id="tspan3953" /><tspan
   sodipodi:role="line"
   style="font-style:normal;font-variant:normal;font-weight:normal;font-stretch:normal;font-size:42.48102188px;font-family:Neucha;-inkscape-font-specification:Neucha;stroke-width:1.61365008"
   x="1110.8016"
   y="2240.0374"
   id="tspan3387">дивитися,</tspan><tspan
   sodipodi:role="line"
   style="font-style:normal;font-variant:normal;font-weight:normal;font-stretch:normal;font-size:42.48102188px;font-family:Neucha;-inkscape-font-specification:Neucha;stroke-width:1.61365008"
   x="1116.734"
   y="2293.1387"
   id="tspan3385">як ти копаєш...  </tspan></text>
<tspan
         sodipodi:role="line"
         style="font-style:normal;font-variant:normal;font-weight:normal;font-stretch:normal;font-size:42.48102188px;line-height:1.25;font-family:Neucha;-inkscape-font-specification:Neucha;stroke-width:1.61365008"
         x="1116.734"
         y="2293.1387"
         id="tspan4252" /></text>
    <text
       xml:space="preserve"
       style="font-style:normal;font-variant:normal;font-weight:normal;font-stretch:normal;line-height:0%;font-family:Lavi;-inkscape-font-specification:Lavi;text-align:center;letter-spacing:0px;word-spacing:0px;text-anchor:middle;fill:#000000;fill-opacity:1;stroke:none"
       x="1273.5842"
       y="2248.2395"
       id="text4246-3-7"><tspan
         sodipodi:role="line"
         style="font-style:normal;font-variant:normal;font-weight:normal;font-stretch:normal;font-size:45px;line-height:1.25;font-family:Neucha;-inkscape-font-specification:Neucha"
         x="1273.5842"
         y="2248.2395"
         id="tspan4222">Закопаєш усі ці</tspan><tspan
         sodipodi:role="line"
         style="font-style:normal;font-variant:normal;font-weight:normal;font-stretch:normal;font-size:45px;line-height:1.25;font-family:Neucha;-inkscape-font-specification:Neucha"
         x="1273.5842"
         y="2304.4895"
         id="tspan3389">невдалі зілля, та</tspan><tspan
         sodipodi:role="line"
         style="font-style:normal;font-variant:normal;font-weight:normal;font-stretch:normal;font-size:45px;line-height:1.25;font-family:Neucha;-inkscape-font-specification:Neucha"
         x="1273.5842"
         y="2360.7395"
         id="tspan3391">якмога швидше додому,</tspan><tspan
         sodipodi:role="line"
         style="font-style:normal;font-variant:normal;font-weight:normal;font-stretch:normal;font-size:45px;line-height:1.25;font-family:Neucha;-inkscape-font-specification:Neucha"
         x="1273.5842"
         y="2416.9895"
         id="tspan3968">відпочивати.</tspan></text>
    <text
       xml:space="preserve"
       style="font-style:normal;font-variant:normal;font-weight:normal;font-stretch:normal;line-height:0%;font-family:Lavi;-inkscape-font-specification:Lavi;text-align:center;letter-spacing:0px;word-spacing:0px;text-anchor:middle;fill:#000000;fill-opacity:1;stroke:none"
       x="2126.3442"
       y="2363.7119"
       id="text4246-3-7-6"><tspan
         sodipodi:role="line"
         style="font-style:normal;font-variant:normal;font-weight:normal;font-stretch:normal;font-size:45px;line-height:1.25;font-family:Neucha;-inkscape-font-specification:Neucha"
         x="2126.3442"
         y="2363.7119"
         id="tspan4193">Розраховувати,</tspan><tspan
         sodipodi:role="line"
         style="font-style:normal;font-variant:normal;font-weight:normal;font-stretch:normal;font-size:45px;line-height:1.25;font-family:Neucha;-inkscape-font-specification:Neucha"
         x="2126.3442"
         y="2419.9619"
         id="tspan3406">що ти закінчиш до</tspan><tspan
         sodipodi:role="line"
         style="font-style:normal;font-variant:normal;font-weight:normal;font-stretch:normal;font-size:45px;line-height:1.25;font-family:Neucha;-inkscape-font-specification:Neucha"
         x="2126.3442"
         y="2476.2119"
         id="tspan3408">завтра - верх оптимизму,</tspan><tspan
         sodipodi:role="line"
         style="font-style:normal;font-variant:normal;font-weight:normal;font-stretch:normal;font-size:45px;line-height:1.25;font-family:Neucha;-inkscape-font-specification:Neucha"
         x="2126.3442"
         y="2532.4619"
         id="tspan3983">але хто знає!</tspan></text>
    <text
       xml:space="preserve"
       style="font-style:normal;font-variant:normal;font-weight:normal;font-stretch:normal;line-height:0%;font-family:Lavi;-inkscape-font-specification:Lavi;text-align:center;letter-spacing:0px;word-spacing:0px;text-anchor:middle;fill:#000000;fill-opacity:1;stroke:none"
       x="775.45044"
       y="2707.4324"
       id="text4246-3-7-6-7"><tspan
         sodipodi:role="line"
         style="font-style:normal;font-variant:normal;font-weight:normal;font-stretch:normal;font-size:45px;line-height:1.25;font-family:Neucha;-inkscape-font-specification:Neucha"
         x="775.45044"
         y="2707.4324"
         id="tspan3987">Добре,</tspan><tspan
         sodipodi:role="line"
         style="font-style:normal;font-variant:normal;font-weight:normal;font-stretch:normal;font-size:45px;line-height:1.25;font-family:Neucha;-inkscape-font-specification:Neucha"
         x="781.73462"
         y="2763.6824"
         id="tspan3428">я поспішу! </tspan></text>
    <text
       xml:space="preserve"
       style="font-style:normal;font-variant:normal;font-weight:normal;font-stretch:normal;line-height:0%;font-family:Lavi;-inkscape-font-specification:Lavi;text-align:center;letter-spacing:0px;word-spacing:0px;text-anchor:middle;fill:#000000;fill-opacity:1;stroke:none"
       x="942.81274"
       y="2838.0046"
       id="text4246-3-7-6-7-0"><tspan
         sodipodi:role="line"
         style="font-style:normal;font-variant:normal;font-weight:normal;font-stretch:normal;font-size:45px;line-height:1.25;font-family:Neucha;-inkscape-font-specification:Neucha"
         x="949.09692"
         y="2838.0046"
         id="tspan3442">Але, між іншим, що це </tspan><tspan
         sodipodi:role="line"
         style="font-style:normal;font-variant:normal;font-weight:normal;font-stretch:normal;font-size:45px;line-height:1.25;font-family:Neucha;-inkscape-font-specification:Neucha"
         x="942.81274"
         y="2894.2546"
         id="tspan4770">за звичка така - завжди</tspan><tspan
         sodipodi:role="line"
         style="font-style:normal;font-variant:normal;font-weight:normal;font-stretch:normal;font-size:45px;line-height:1.25;font-family:Neucha;-inkscape-font-specification:Neucha"
         x="949.09692"
         y="2950.5046"
         id="tspan3454"> </tspan></text>
    <text
       xml:space="preserve"
       style="font-style:normal;font-variant:normal;font-weight:normal;font-stretch:normal;line-height:0%;font-family:Lavi;-inkscape-font-specification:Lavi;text-align:center;letter-spacing:0px;word-spacing:0px;text-anchor:middle;fill:#000000;fill-opacity:1;stroke:none"
       x="1026.5442"
       y="3025.0105"
       id="text4246-3-7-6-7-0-9"><tspan
         sodipodi:role="line"
         style="font-style:normal;font-variant:normal;font-weight:normal;font-stretch:normal;font-size:45px;line-height:1.25;font-family:Neucha;-inkscape-font-specification:Neucha"
         x="1026.5442"
         y="3025.0105"
         id="tspan4782">Може, було б</tspan><tspan
         sodipodi:role="line"
         style="font-style:normal;font-variant:normal;font-weight:normal;font-stretch:normal;font-size:45px;line-height:1.25;font-family:Neucha;-inkscape-font-specification:Neucha"
         x="1032.8284"
         y="3081.2605"
         id="tspan3511">краще, якщо... </tspan></text>
    <text
       xml:space="preserve"
       style="font-style:normal;font-variant:normal;font-weight:normal;font-stretch:normal;line-height:0%;font-family:Lavi;-inkscape-font-specification:Lavi;text-align:center;letter-spacing:0px;word-spacing:0px;text-anchor:middle;fill:#000000;fill-opacity:1;stroke:none"
       x="2072.6833"
       y="3281.2891"
       id="text4246-3-7-6-7-0-9-3"><tspan
         sodipodi:role="line"
         style="font-style:normal;font-variant:normal;font-weight:normal;font-stretch:normal;font-size:50px;line-height:1.25;font-family:Neucha;-inkscape-font-specification:Neucha;stroke:#000000;stroke-width:2.5999999;stroke-miterlimit:4;stroke-dasharray:none;stroke-opacity:1"
         x="2072.6833"
         y="3281.2891"
         id="tspan4464-5">ЩО?</tspan></text>
    <text
       xml:space="preserve"
       style="font-style:normal;font-variant:normal;font-weight:normal;font-stretch:normal;line-height:0%;font-family:Lavi;-inkscape-font-specification:Lavi;text-align:center;letter-spacing:0px;word-spacing:0px;text-anchor:middle;display:inline;fill:#000000;fill-opacity:1;stroke:none"
       x="941.44403"
       y="2950.9087"
       id="text4246-3-7-6-7-0-9-3-6"><tspan
         sodipodi:role="line"
         style="font-size:45px;line-height:1.25"
         x="941.44403"
         y="2950.9087"
         id="tspan4464-5-4"><tspan
           style="font-style:normal;font-variant:normal;font-weight:normal;font-stretch:normal;font-family:Neucha;-inkscape-font-specification:Neucha;stroke:#000000;stroke-width:2.5999999;stroke-miterlimit:4;stroke-dasharray:none;stroke-opacity:1"
           id="tspan4493-3">все закопувати?</tspan></tspan></text>
    <text
       xml:space="preserve"
       style="font-style:normal;font-variant:normal;font-weight:normal;font-stretch:normal;line-height:0%;font-family:Lavi;-inkscape-font-specification:Lavi;text-align:center;letter-spacing:0px;word-spacing:0px;text-anchor:middle;display:inline;fill:#000000;fill-opacity:1;stroke:none"
       x="1983.7948"
       y="3282.2603"
       id="text4246-3-7-6-7-5"><tspan
         sodipodi:role="line"
         style="font-style:normal;font-variant:normal;font-weight:normal;font-stretch:normal;font-size:45px;line-height:1.25;font-family:Neucha;-inkscape-font-specification:Neucha"
         x="1983.7948"
         y="3282.2603"
         id="tspan3428-8">Якщо</tspan></text>
  </g>
</svg>
