<?xml version="1.0" encoding="UTF-8" standalone="no"?>
<svg
   xmlns:dc="http://purl.org/dc/elements/1.1/"
   xmlns:cc="http://creativecommons.org/ns#"
   xmlns:rdf="http://www.w3.org/1999/02/22-rdf-syntax-ns#"
   xmlns:svg="http://www.w3.org/2000/svg"
   xmlns="http://www.w3.org/2000/svg"
   xmlns:xlink="http://www.w3.org/1999/xlink"
   height="765"
   width="1100"
   version="1.1"
   id="svg2">
  <metadata
     id="metadata8">
    <rdf:RDF>
      <cc:Work
         rdf:about="">
        <dc:format>image/svg+xml</dc:format>
        <dc:type
           rdf:resource="http://purl.org/dc/dcmitype/StillImage" />
        <dc:title></dc:title>
        <cc:license
           rdf:resource="http://creativecommons.org/licenses/by/3.0/" />
      </cc:Work>
      <cc:License
         rdf:about="http://creativecommons.org/licenses/by/3.0/">
        <cc:permits
           rdf:resource="http://creativecommons.org/ns#Reproduction" />
        <cc:permits
           rdf:resource="http://creativecommons.org/ns#Distribution" />
        <cc:requires
           rdf:resource="http://creativecommons.org/ns#Notice" />
        <cc:requires
           rdf:resource="http://creativecommons.org/ns#Attribution" />
        <cc:permits
           rdf:resource="http://creativecommons.org/ns#DerivativeWorks" />
      </cc:License>
    </rdf:RDF>
  </metadata>
  <defs
     id="defs6">
    <filter
       style="color-interpolation-filters:sRGB;"
       id="filter3797">
      <feFlood
         result="flood"
         flood-color="rgb(0,0,0)"
         flood-opacity="0.8"
         id="feFlood3799" />
      <feComposite
         result="composite1"
         operator="in"
         in="flood"
         in2="SourceGraphic"
         id="feComposite3801" />
      <feGaussianBlur
         result="blur"
         stdDeviation="10"
         in="composite"
         id="feGaussianBlur3803" />
      <feOffset
         result="offset"
         dy="10"
         dx="8"
         id="feOffset3805" />
      <feComposite
         result="composite2"
         operator="over"
         in="SourceGraphic"
         in2="offset"
         id="feComposite3807" />
    </filter>
    <filter
       style="color-interpolation-filters:sRGB;"
       id="filter3836">
      <feFlood
         result="flood"
         flood-color="rgb(0,0,0)"
         flood-opacity="0.8"
         id="feFlood3838" />
      <feComposite
         result="composite1"
         operator="in"
         in="flood"
         in2="SourceGraphic"
         id="feComposite3840" />
      <feGaussianBlur
         result="blur"
         stdDeviation="5"
         in="composite"
         id="feGaussianBlur3842" />
      <feOffset
         result="offset"
         dy="10"
         dx="8"
         id="feOffset3844" />
      <feComposite
         result="composite2"
         operator="over"
         in="SourceGraphic"
         in2="offset"
         id="feComposite3846" />
    </filter>
    <filter
       height="1.0273548"
       y="-0.013677411"
       width="1.0068012"
       x="-0.0034005821"
       id="filter4402"
       style="color-interpolation-filters:sRGB">
      <feGaussianBlur
         id="feGaussianBlur4404"
         stdDeviation="0.082595546" />
    </filter>
    <filter
       height="1.0295539"
       y="-0.014776948"
       width="1.0064436"
       x="-0.0032217882"
       id="filter4406"
       style="color-interpolation-filters:sRGB">
      <feGaussianBlur
         id="feGaussianBlur4408"
         stdDeviation="0.13376918" />
    </filter>
    <filter
       height="1.0278708"
       y="-0.013935394"
       width="1.0065782"
       x="-0.0032890984"
       id="filter4398"
       style="color-interpolation-filters:sRGB">
      <feGaussianBlur
         id="feGaussianBlur4400"
         stdDeviation="0.11702162" />
    </filter>
  </defs>
  <g
     style="display:inline"
     id="layer1" />
  <image
     xlink:href="../gfx_Pepper-and-Carrot_by-David-Revoy_E02.png"
     width="1100"
     height="765"
     id="image10"
     x="0"
     y="0" />
  <g
     id="layer2">
    <flowRoot
       transform="matrix(0.69723552,0,0,0.69723552,-804.64452,243.15998)"
       style="font-style:normal;font-variant:normal;font-weight:normal;font-stretch:normal;line-height:0.01%;font-family:Arial;-inkscape-font-specification:Arial;letter-spacing:0px;word-spacing:0px;display:inline;fill:#301b0b;fill-opacity:1;stroke:none;filter:url(#filter3836)"
       id="episode-title"
       xml:space="preserve"><flowRegion
         id="flowRegion2989"><rect
           style="fill:#301b0b;fill-opacity:1"
           y="644.36664"
           x="739.22333"
           height="107.55731"
           width="2405.8"
           id="rect2991" /></flowRegion><flowPara
         style="font-style:normal;font-variant:normal;font-weight:normal;font-stretch:normal;font-size:68.8433075px;line-height:1.25;font-family:Lavi;-inkscape-font-specification:Lavi;text-align:center;text-anchor:middle;fill:#ffffff;fill-opacity:1"
         id="flowPara2993">2. díl: Duhové lektvary</flowPara></flowRoot>    <flowRoot
       transform="matrix(1.2229781,-0.17368146,0.29585047,1.635455,-1351.1901,-2182.2868)"
       style="font-style:normal;font-variant:normal;font-weight:normal;font-stretch:normal;line-height:0.01%;font-family:Arial;-inkscape-font-specification:Arial;letter-spacing:0px;word-spacing:0px;opacity:0.90100002;fill:#2d1a1c;fill-opacity:1;stroke:#000000;stroke-width:0.28673479;stroke-linecap:butt;stroke-linejoin:miter;stroke-miterlimit:4;stroke-dasharray:none;stroke-opacity:1;filter:url(#filter4398)"
       id="flowRoot4325"
       xml:space="preserve"><flowRegion
         id="flowRegion4327"><rect
           style="fill:#2d1a1c;fill-opacity:1;stroke:#000000;stroke-width:0.28673479;stroke-miterlimit:4;stroke-dasharray:none;stroke-opacity:1"
           y="1755.9342"
           x="841.07574"
           height="14.722872"
           width="131.93344"
           id="rect4329" /></flowRegion><flowPara
         style="font-style:normal;font-variant:normal;font-weight:normal;font-stretch:normal;font-size:11.34531593px;line-height:1.25;font-family:Fondamento;-inkscape-font-specification:Fondamento;text-align:center;text-anchor:middle;fill:#2d1a1c;fill-opacity:1;stroke:#000000;stroke-width:0.28673479;stroke-miterlimit:4;stroke-dasharray:none;stroke-opacity:1"
         id="flowPara4335">VAROVÁNÍ</flowPara></flowRoot>    <flowRoot
       transform="matrix(1.2083856,-0.10996597,0.18390925,1.254133,-1122.8412,-1531.7796)"
       style="font-style:normal;font-variant:normal;font-weight:normal;font-stretch:normal;line-height:0.01%;font-family:Arial;-inkscape-font-specification:Arial;letter-spacing:0px;word-spacing:0px;opacity:0.878;fill:#221415;fill-opacity:1;stroke:#000000;stroke-width:0.3171955;stroke-linecap:butt;stroke-linejoin:miter;stroke-miterlimit:4;stroke-dasharray:none;stroke-opacity:1;filter:url(#filter4406)"
       id="flowRoot4325-5"
       xml:space="preserve"><flowRegion
         id="flowRegion4327-2"><rect
           style="fill:#221415;fill-opacity:1;stroke:#000000;stroke-width:0.3171955;stroke-miterlimit:4;stroke-dasharray:none;stroke-opacity:1"
           y="1755.9342"
           x="841.07574"
           height="15.861448"
           width="110.97581"
           id="rect4329-1" /></flowRegion><flowPara
         style="font-style:normal;font-variant:normal;font-weight:normal;font-stretch:normal;font-size:11.09556675px;line-height:1.25;font-family:Fondamento;-inkscape-font-specification:Fondamento;text-align:center;text-anchor:middle;fill:#221415;fill-opacity:1;stroke:#000000;stroke-width:0.3171955;stroke-miterlimit:4;stroke-dasharray:none;stroke-opacity:1"
         id="flowPara4335-3">ČARODĚJKY</flowPara></flowRoot>    <flowRoot
       transform="matrix(1.5990307,-0.17403521,0.33862035,1.7632557,-1764.3461,-2386.7843)"
       style="font-style:normal;font-variant:normal;font-weight:normal;font-stretch:normal;line-height:0.01%;font-family:Arial;-inkscape-font-specification:Arial;letter-spacing:0px;word-spacing:0px;opacity:0.92000002;fill:#241516;fill-opacity:1;stroke:#000000;stroke-width:0.23315693;stroke-linecap:butt;stroke-linejoin:miter;stroke-miterlimit:4;stroke-dasharray:none;stroke-opacity:1;filter:url(#filter4402)"
       id="flowRoot4325-9"
       xml:space="preserve"><flowRegion
         id="flowRegion4327-0"><rect
           style="font-size:9.57801247px;fill:#241516;fill-opacity:1;stroke:#000000;stroke-width:0.23315693;stroke-miterlimit:4;stroke-dasharray:none;stroke-opacity:1"
           y="1755.9342"
           x="841.07574"
           height="14.722872"
           width="131.93344"
           id="rect4329-16" /></flowRegion><flowPara
         style="font-style:normal;font-variant:normal;font-weight:normal;font-stretch:normal;font-size:9.57801247px;line-height:1.25;font-family:Fondamento;-inkscape-font-specification:Fondamento;text-align:center;text-anchor:middle;fill:#241516;fill-opacity:1;stroke:#000000;stroke-width:0.23315693;stroke-miterlimit:4;stroke-dasharray:none;stroke-opacity:1"
         id="flowPara4335-0">POZEMEK</flowPara></flowRoot>  </g>
</svg>
