<?xml version="1.0" encoding="UTF-8" standalone="no"?>
<!-- Created with Inkscape (http://www.inkscape.org/) -->

<svg
   xmlns:dc="http://purl.org/dc/elements/1.1/"
   xmlns:cc="http://creativecommons.org/ns#"
   xmlns:rdf="http://www.w3.org/1999/02/22-rdf-syntax-ns#"
   xmlns:svg="http://www.w3.org/2000/svg"
   xmlns="http://www.w3.org/2000/svg"
   xmlns:xlink="http://www.w3.org/1999/xlink"
   xmlns:sodipodi="http://sodipodi.sourceforge.net/DTD/sodipodi-0.dtd"
   xmlns:inkscape="http://www.inkscape.org/namespaces/inkscape"
   id="svg2"
   version="1.1"
   inkscape:version="0.92.3 (2405546, 2018-03-11)"
   width="2481"
   height="5000"
   sodipodi:docname="E25P10.svg">
  <metadata
     id="metadata8">
    <rdf:RDF>
      <cc:Work
         rdf:about="">
        <dc:format>image/svg+xml</dc:format>
        <dc:type
           rdf:resource="http://purl.org/dc/dcmitype/StillImage" />
        <dc:title />
      </cc:Work>
    </rdf:RDF>
  </metadata>
  <defs
     id="defs6">
    <filter
       color-interpolation-filters="sRGB"
       inkscape:label="Drop Shadow"
       id="filter5546">
      <feFlood
         flood-opacity="1"
         flood-color="rgb(0,0,0)"
         result="flood"
         id="feFlood5548" />
      <feComposite
         in="flood"
         in2="SourceGraphic"
         operator="in"
         result="composite1"
         id="feComposite5550" />
      <feGaussianBlur
         in="composite1"
         stdDeviation="1"
         result="blur"
         id="feGaussianBlur5552" />
      <feOffset
         dx="2.5"
         dy="2.5"
         result="offset"
         id="feOffset5554" />
      <feComposite
         in="SourceGraphic"
         in2="offset"
         operator="over"
         result="composite2"
         id="feComposite5556" />
    </filter>
  </defs>
  <sodipodi:namedview
     pagecolor="#ffffff"
     bordercolor="#666666"
     borderopacity="1"
     objecttolerance="10"
     gridtolerance="10"
     guidetolerance="10"
     inkscape:pageopacity="0"
     inkscape:pageshadow="2"
     inkscape:window-width="1920"
     inkscape:window-height="1017"
     id="namedview4"
     showgrid="false"
     inkscape:zoom="0.15534427"
     inkscape:cx="1655.8003"
     inkscape:cy="2953.7638"
     inkscape:window-x="1912"
     inkscape:window-y="-8"
     inkscape:window-maximized="1"
     inkscape:current-layer="layer1"
     inkscape:object-nodes="true"
     showguides="true"
     inkscape:guide-bbox="true">
    <sodipodi:guide
       position="1425.8203,4914.3274"
       orientation="0,1"
       id="guide4214"
       inkscape:locked="false" />
  </sodipodi:namedview>
  <g
     inkscape:groupmode="layer"
     id="layer1"
     inkscape:label="artwork"
     style="display:inline"
     transform="translate(0,1024)">
    <image
       sodipodi:absref="C:\Users\thomas.nordstrom\Desktop\lang\no\../gfx_Pepper-and-Carrot_by-David-Revoy_E25P10.png"
       xlink:href="../gfx_Pepper-and-Carrot_by-David-Revoy_E25P10.png"
       y="-1023.3771"
       x="0.54707891"
       id="image4223"
       style="image-rendering:optimizeQuality"
       preserveAspectRatio="none"
       height="5000"
       width="2481" />
  </g>
  <g
     inkscape:groupmode="layer"
     id="layer3"
     inkscape:label="speechbubbles"
     style="display:inline"
     transform="translate(0,1024)" />
  <g
     inkscape:groupmode="layer"
     id="layer2"
     inkscape:label="text"
     style="display:inline;opacity:0.85500004"
     transform="translate(0,1024)">
    <text
       xml:space="preserve"
       style="font-style:normal;font-variant:normal;font-weight:normal;font-stretch:normal;line-height:0%;font-family:Lavi;-inkscape-font-specification:Lavi;text-align:center;letter-spacing:0px;word-spacing:0px;text-anchor:middle;display:inline;opacity:0.85500004;fill:#241c1c;fill-opacity:1;stroke:none"
       x="1230.201"
       y="-745.40753"
       id="text4246-42"><tspan
         sodipodi:role="line"
         style="font-size:36.73472214px;line-height:1.25;fill:#241c1c;stroke:none"
         x="1230.201"
         y="-745.40753"
         id="tspan4252-9">05/2018 - www.peppercarrot.com - Tegning &amp; senarier: David Revoy</tspan></text>
    <text
       xml:space="preserve"
       style="color:#000000;font-style:normal;font-variant:normal;font-weight:normal;font-stretch:normal;line-height:0%;font-family:Lavi;-inkscape-font-specification:Lavi;text-indent:0;text-align:center;text-decoration:none;text-decoration-line:none;letter-spacing:0px;word-spacing:0px;text-transform:none;writing-mode:lr-tb;direction:ltr;baseline-shift:baseline;text-anchor:middle;display:inline;overflow:visible;visibility:visible;opacity:0.85500004;fill:#241c1c;fill-opacity:1;fill-rule:nonzero;stroke:none;enable-background:accumulate"
       x="1240.4545"
       y="-606.9248"
       id="text4246-42-4"><tspan
         sodipodi:role="line"
         style="color:#000000;font-style:normal;font-variant:normal;font-weight:normal;font-stretch:normal;font-size:30px;line-height:125%;font-family:Lavi;-inkscape-font-specification:Lavi;text-indent:0;text-align:center;text-decoration:none;text-decoration-line:none;letter-spacing:0px;word-spacing:0px;text-transform:none;writing-mode:lr-tb;direction:ltr;baseline-shift:baseline;text-anchor:middle;display:inline;overflow:visible;visibility:visible;fill:#241c1c;fill-opacity:1;fill-rule:nonzero;stroke:none;enable-background:accumulate"
         x="1240.4545"
         y="-606.9248"
         id="tspan4252-9-9">Basert p<tspan
   style="font-size:26.66666603px"
   id="tspan862">å</tspan> Hereva universet skapt av David Revoy med bidrag fra Craig Maloney. Rettelser av Willem Sonke, Moini, Hali, CGand og Alex Gryson.</tspan></text>
    <text
       xml:space="preserve"
       style="font-style:normal;font-variant:normal;font-weight:normal;font-stretch:normal;line-height:0%;font-family:Arial;-inkscape-font-specification:Arial;text-align:center;letter-spacing:0px;word-spacing:0px;text-anchor:middle;display:inline;opacity:0.85500004;fill:#241c1c;fill-opacity:1;stroke:none"
       x="1239.0995"
       y="-566.02881"
       id="text4229"><tspan
         sodipodi:role="line"
         x="1239.0995"
         y="-566.02881"
         style="font-style:normal;font-variant:normal;font-weight:normal;font-stretch:normal;font-size:30px;line-height:1.25;font-family:Lavi;-inkscape-font-specification:Lavi;fill:#241c1c;stroke:none"
         id="tspan4169">Programvare: Krita 4.0.0, Inkscape 0.92.3 p<tspan
   style="font-size:26.66666667px"
   id="tspan843">å</tspan> Kubuntu 17.10</tspan></text>
    <text
       id="text4179"
       y="-521.49512"
       x="1239.3632"
       style="font-style:normal;font-variant:normal;font-weight:normal;font-stretch:normal;line-height:0%;font-family:Arial;-inkscape-font-specification:Arial;text-align:center;letter-spacing:0px;word-spacing:0px;text-anchor:middle;display:inline;opacity:0.85500004;fill:#241c1c;fill-opacity:1;stroke:none"
       xml:space="preserve"><tspan
         id="tspan4181"
         style="font-style:normal;font-variant:normal;font-weight:bold;font-stretch:normal;font-size:35px;line-height:1.25;font-family:Lavi;-inkscape-font-specification:'Lavi Bold';fill:#241c1c;stroke:none"
         y="-521.49512"
         x="1239.3632"
         sodipodi:role="line">Lisens: Creative Commons Attribution 4.0</tspan></text>
    <text
       xml:space="preserve"
       style="color:#000000;font-style:normal;font-variant:normal;font-weight:normal;font-stretch:normal;line-height:0%;font-family:Lavi;-inkscape-font-specification:Lavi;text-indent:0;text-align:center;text-decoration:none;text-decoration-line:none;letter-spacing:0px;word-spacing:0px;text-transform:none;writing-mode:lr-tb;direction:ltr;baseline-shift:baseline;text-anchor:middle;display:inline;overflow:visible;visibility:visible;opacity:0.85500004;fill:#241c1c;fill-opacity:1;fill-rule:nonzero;stroke:none;enable-background:accumulate"
       x="1226.9357"
       y="-697.11194"
       id="text844"><tspan
         sodipodi:role="line"
         style="color:#000000;font-style:normal;font-variant:normal;font-weight:normal;font-stretch:normal;font-size:30px;line-height:125%;font-family:Lavi;-inkscape-font-specification:Lavi;text-indent:0;text-align:center;text-decoration:none;text-decoration-line:none;letter-spacing:0px;word-spacing:0px;text-transform:none;writing-mode:lr-tb;direction:ltr;baseline-shift:baseline;text-anchor:middle;display:inline;overflow:visible;visibility:visible;fill:#241c1c;fill-opacity:1;fill-rule:nonzero;stroke:none;enable-background:accumulate"
         x="1226.9357"
         y="-697.11194"
         id="tspan842">Tilbakemeldinger p<tspan
   style="font-size:26.66666667px"
   id="tspan864">å</tspan> betautgaven: Nicolas Artance, Imsesaok, Craig Maloney, Midgard, Valvin, xHire og Zveryok.</tspan></text>
    <text
       xml:space="preserve"
       style="font-style:normal;font-variant:normal;font-weight:normal;font-stretch:normal;line-height:0%;font-family:Arial;-inkscape-font-specification:Arial;text-align:center;letter-spacing:0px;word-spacing:0px;text-anchor:middle;display:inline;opacity:0.85500004;fill:#483e37;fill-opacity:1;stroke:none;filter:url(#filter4155)"
       x="1351.4144"
       y="3852.748"
       id="text4221-3-9"><tspan
         sodipodi:role="line"
         id="tspan4223-6-2"
         x="1351.4144"
         y="3852.748"
         style="font-style:normal;font-variant:normal;font-weight:normal;font-stretch:normal;font-size:40px;line-height:1.25;font-family:Lavi;-inkscape-font-specification:Lavi;fill:#483e37">Du kan ogs<tspan
   style="font-size:34.66666794px"
   id="tspan848">å</tspan> bli en &quot;patron&quot;-følger av Pepper&amp;Gulrot p<tspan
   style="font-size:34.66666794px"
   id="tspan860">å</tspan> www.patreon.com/davidrevoy</tspan></text>
    <text
       xml:space="preserve"
       style="font-style:normal;font-variant:normal;font-weight:normal;font-stretch:normal;line-height:0%;font-family:Arial;-inkscape-font-specification:Arial;text-align:center;letter-spacing:0px;word-spacing:0px;text-anchor:middle;display:inline;opacity:0.85500004;fill:#483e37;fill-opacity:1;stroke:none;filter:url(#filter4155)"
       x="1240.3438"
       y="-372.42929"
       id="text4162-7-2"><tspan
         sodipodi:role="line"
         x="1240.3438"
         y="-372.42929"
         style="font-style:normal;font-variant:normal;font-weight:normal;font-stretch:normal;font-size:40px;line-height:1.25;font-family:Lavi;-inkscape-font-specification:Lavi;fill:#483e37"
         id="tspan4166-5-8">Pepper&amp;Gulrot er fullstendig fri, <tspan
   style="font-size:34.66666667px"
   id="tspan878">å</tspan>pen kildekode</tspan><tspan
         sodipodi:role="line"
         x="1240.3438"
         y="-322.42929"
         style="font-style:normal;font-variant:normal;font-weight:normal;font-stretch:normal;font-size:40px;line-height:1.25;font-family:Lavi;-inkscape-font-specification:Lavi;fill:#483e37"
         id="tspan3384-9">og sponset av sine trofaste fans.</tspan><tspan
         sodipodi:role="line"
         x="1240.3438"
         y="-272.42929"
         style="font-style:normal;font-variant:normal;font-weight:normal;font-stretch:normal;font-size:40px;line-height:1.25;font-family:Lavi;-inkscape-font-specification:Lavi;fill:#483e37"
         id="tspan3382-7">For denne episoden, takk til 909 &quot;Patrons&quot;:</tspan></text>
  </g>
</svg>
