<?xml version="1.0" encoding="UTF-8" standalone="no"?>
<!-- Created with Inkscape (http://www.inkscape.org/) -->

<svg
   xmlns:dc="http://purl.org/dc/elements/1.1/"
   xmlns:cc="http://creativecommons.org/ns#"
   xmlns:rdf="http://www.w3.org/1999/02/22-rdf-syntax-ns#"
   xmlns:svg="http://www.w3.org/2000/svg"
   xmlns="http://www.w3.org/2000/svg"
   xmlns:xlink="http://www.w3.org/1999/xlink"
   xmlns:sodipodi="http://sodipodi.sourceforge.net/DTD/sodipodi-0.dtd"
   xmlns:inkscape="http://www.inkscape.org/namespaces/inkscape"
   id="svg2"
   version="1.1"
   inkscape:version="0.48.5 r10040"
   width="2481"
   height="3503"
   sodipodi:docname="Pepper-and-Carrot_by-David-Revoy_E06P08.svg">
  <metadata
     id="metadata8">
    <rdf:RDF>
      <cc:Work
         rdf:about="">
        <dc:format>image/svg+xml</dc:format>
        <dc:type
           rdf:resource="http://purl.org/dc/dcmitype/StillImage" />
        <dc:title />
      </cc:Work>
    </rdf:RDF>
  </metadata>
  <defs
     id="defs6">
    <filter
       color-interpolation-filters="sRGB"
       id="filter4375-4-1-1-15-1-3-3"
       inkscape:label="deevad outline effect">
      <feFlood
         id="feFlood4377-7-9-0-4-4-4-7"
         flood-opacity="1"
         flood-color="rgb(0,0,0)"
         result="flood" />
      <feComposite
         id="feComposite4379-3-8-8-6-0-7-4"
         in2="SourceGraphic"
         in="flood"
         operator="in"
         result="composite1" />
      <feMorphology
         id="feMorphology4393-1-0-49-8-2-7-3"
         operator="dilate"
         radius="0.69999999999999996"
         result="result3" />
      <feComposite
         id="feComposite4385-9-5-7-2-1-2-9"
         in2="result3"
         in="SourceGraphic"
         operator="over"
         result="composite2" />
    </filter>
    <filter
       color-interpolation-filters="sRGB"
       id="filter3639"
       inkscape:label="deevad outline effect">
      <feFlood
         id="feFlood3641"
         flood-opacity="1"
         flood-color="rgb(0,0,0)"
         result="flood" />
      <feComposite
         id="feComposite3643"
         in2="SourceGraphic"
         in="flood"
         operator="in"
         result="composite1" />
      <feMorphology
         id="feMorphology3645"
         operator="dilate"
         radius="0.69999999999999996"
         result="result3" />
      <feComposite
         id="feComposite3647"
         in2="result3"
         in="SourceGraphic"
         operator="over"
         result="composite2" />
    </filter>
    <filter
       color-interpolation-filters="sRGB"
       id="filter3649"
       inkscape:label="deevad outline effect">
      <feFlood
         id="feFlood3651"
         flood-opacity="1"
         flood-color="rgb(0,0,0)"
         result="flood" />
      <feComposite
         id="feComposite3653"
         in2="SourceGraphic"
         in="flood"
         operator="in"
         result="composite1" />
      <feMorphology
         id="feMorphology3655"
         operator="dilate"
         radius="0.69999999999999996"
         result="result3" />
      <feComposite
         id="feComposite3657"
         in2="result3"
         in="SourceGraphic"
         operator="over"
         result="composite2" />
    </filter>
  </defs>
  <sodipodi:namedview
     pagecolor="#ffffff"
     bordercolor="#666666"
     borderopacity="1"
     objecttolerance="10"
     gridtolerance="10"
     guidetolerance="10"
     inkscape:pageopacity="0"
     inkscape:pageshadow="2"
     inkscape:window-width="1292"
     inkscape:window-height="745"
     id="namedview4"
     showgrid="false"
     inkscape:zoom="0.40000002"
     inkscape:cx="1310.349"
     inkscape:cy="427.4578"
     inkscape:window-x="66"
     inkscape:window-y="-8"
     inkscape:window-maximized="1"
     inkscape:current-layer="layer1" />
  <g
     inkscape:groupmode="layer"
     id="layer2"
     inkscape:label="artwork"
     sodipodi:insensitive="true">
    <image
       sodipodi:absref="C:\Users\Gwen\Documents\Academie_du_Gallo\Traduction_BD\peppercarrot_ep06_translation-master\go\../gfx_Pepper-and-Carrot_by-David-Revoy_E06P08.png"
       xlink:href="../gfx_Pepper-and-Carrot_by-David-Revoy_E06P08.png"
       width="2481"
       height="3503"
       id="image10"
       x="0"
       y="0" />
  </g>
  <g
     inkscape:groupmode="layer"
     id="layer1"
     inkscape:label="txt">
    <path
       style="color:#000000;fill:#ffffff;fill-opacity:1;fill-rule:nonzero;stroke:none;stroke-width:1px;marker:none;visibility:visible;display:inline;overflow:visible;enable-background:accumulate"
       d="m 524.44684,1977.3621 c -14.01377,-46.3951 -40.00882,-95.7772 -45.79925,-144.3988 l -11.44029,45.6542 c -62.91152,-129.7986 -216.9307,-210.2683 -37.93418,5.9274 l 4.61436,-21.5395 c 6.85365,14.1808 24.60331,28.6882 28.47492,44.653 l 15.40082,-17.4241 c 13.28656,38.1411 31.12227,58.0858 46.68362,87.1278 z"
       id="path4032-9"
       inkscape:connector-curvature="0"
       sodipodi:nodetypes="cccccccc" />
    <path
       style="color:#000000;fill:#ffffff;fill-opacity:1;fill-rule:nonzero;stroke:none;stroke-width:1px;marker:none;visibility:visible;display:inline;overflow:visible;enable-background:accumulate"
       d="m 734.33747,2852.147 c 34.68316,-42.7494 111.27433,-68.3456 171.06944,-6.0348 45.90017,-4.9397 81.26643,-4.2641 125.92729,48.6318 -41.84055,-33.4484 -69.35796,-47.6353 -136.48501,-35.9449 -35.82358,-28.4476 -90.54377,-19.0565 -121.82817,39.1849 -31.28451,58.2414 -17.69437,44.59 -17.69437,44.59 l -30.80741,-73.5852 z"
       id="path5074-3-6"
       inkscape:connector-curvature="0"
       sodipodi:nodetypes="ccccsccc" />
    <path
       style="color:#000000;fill:#ffffff;fill-opacity:1;fill-rule:nonzero;stroke:none;stroke-width:1px;marker:none;visibility:visible;display:inline;overflow:visible;enable-background:accumulate"
       d="m 945.11511,1685.3102 c 38.32906,18.6277 26.56293,53.657 -17.25459,29.5292 30.4647,35.9116 50.91128,52.0261 35.37649,66.5249 113.16099,-28.688 40.12509,17.6202 12.35589,45.6958 25.2138,-11.1892 65.3963,-42.7141 50.2471,0.9326 8.0165,-2.0071 17.4491,-7.7553 21.4169,0.9326 10.2141,-5.9994 17.8025,-7.54 22.2405,-3.7303 10.0387,-10.9178 16.5252,-13.7923 16.4745,-1.865 9.4908,-8.9943 12.4136,-5.8987 14.827,-1.8652 16.2884,-19.3104 22.3718,-13.8628 28.8303,-9.3257 9.2223,-11.5941 20.0147,-8.9681 32.1252,5.5954 12.3911,-19.7186 25.706,-18.519 39.5387,-5.5954 4.0629,-4.8576 7.7526,-13.0937 13.1796,-5.5954 5.4916,-2.5937 10.9829,-9.2401 16.4744,-2.7977 57.96,-25.5257 83.2408,-3.9641 110.3791,14.921 15.1317,-8.3376 26.0358,-24.4528 51.8945,-13.0558 2.4173,-11.638 16.2824,-16.3634 40.3625,-14.9211 -24.6985,-14.0451 -25.9691,-22.0409 31.3015,-14.9211 -39.9179,-11.5016 -76.7041,-23.0032 -14.8271,-34.5049 -14.4922,-4.5662 -61.8613,6.1755 -9.8847,-48.4933 -36.9085,12.0657 -70.4145,15.2007 -80.7249,-33.5725 -19.9115,12.8266 -41.9579,19.1806 -59.3081,-10.2582 -15.8027,13.7936 -37.9137,10.4819 -49.4234,3.7302 -3.114,15.1069 -26.6303,38.2752 -58.4843,-3.7302 6.989,23.8751 1.6991,61.9029 -35.4201,-0.9326 -0.7362,10.9306 14.5493,70.3734 -88.9621,-0.9326 12.9121,47.8406 -21.4561,20.0035 -48.5997,3.7302 13.4603,29.9949 -6.7969,32.3145 -51.0709,14.9211 34.1543,28.4805 -0.96419,20.6172 -23.06429,19.584 z"
       id="path3549-2"
       inkscape:connector-curvature="0"
       sodipodi:nodetypes="ccccccccccccccccccccccccccccc" />
    <path
       style="color:#000000;fill:#ffffff;fill-opacity:1;fill-rule:nonzero;stroke:none;stroke-width:1px;marker:none;visibility:visible;display:inline;overflow:visible;enable-background:accumulate"
       d="m 810.79526,1771.3348 c 59.61069,19.3353 120.36891,38.3563 18.91164,101.8294 98.19542,-20.3719 39.17933,14.9051 15.92241,37.5239 174.65799,-51.9019 63.82618,22.3719 22.40058,65.9707 38.58906,-18.6026 99.15342,-68.3384 78.48604,-2.989 45.53418,-33.3853 116.95297,-93.8486 33.48967,-0.4888 70.229,-57.5267 71.7897,-51.5431 34.4572,-7.4014 45.9633,-39.3706 53.8294,-32.4951 48.5989,-8.1869 28.9449,-50.9085 35.3331,-28.2355 44.3606,-16.1822 13.6028,-17.8099 30.626,-14.8931 50.5204,5.4236 17.9945,-30.0046 38.8573,1.8553 38.9548,30.4876 14.8678,-43.1371 39.4611,-49.2478 62.4485,-1.1987 0.4491,-28.76 0.1123,-90.2364 35.4649,-0.097 -9.2507,-82.4524 105.519,-47.6203 160.8607,4.1667 -32.5736,-60.5109 -4.8209,-99.0884 62.7021,-71.2157 2.9789,-17.2842 24.2965,-25.4192 61.9775,-25.3912 -39.5057,-18.4644 -42.0341,-30.0852 47.8358,-24.6056 -63.0857,-13.4132 -121.2836,-27.0977 -25.4943,-49.3379 -22.93,-5.4425 -96.128,14.4245 -18.7345,-70.2892 -56.7817,20.9025 -108.8618,28.4074 -128.2797,-42.2555 -30.202,20.545 -64.1772,31.7789 -93.2638,-9.9075 -23.7232,21.6074 -58.4585,18.6661 -76.8825,9.7585 -3.8299,22.4339 -38.9526,58.4642 -91.5329,-0.4014 12.5361,34.422 6.8734,90.673 -55.345,1.7034 -0.4035,16.1003 27.5068,101.9859 -138.91,6.3458 23.4151,69.0691 -32.12297,31.2084 -75.59692,9.6868 23.05355,42.8397 -8.40438,47.9995 -78.69047,26.32 55.2481,38.8233 -0.0989,30.3318 -34.66165,30.7324 z"
       id="path3549"
       inkscape:connector-curvature="0"
       sodipodi:nodetypes="ccccccccccccccccccccccccccccc" />
    <path
       style="color:#000000;fill:#ffffff;fill-opacity:1;fill-rule:nonzero;stroke:none;stroke-width:1px;marker:none;visibility:visible;display:inline;overflow:visible;enable-background:accumulate"
       d="m 486.76513,410.51226 c 25.66163,-39.6698 165.23764,-36.2833 211.67717,-19.0964 46.43932,17.1867 63.71911,46.7862 65.87906,57.2893 2.15985,10.503 -3.23992,59.1989 -26.99967,68.7472 -23.75964,9.5482 -91.79866,14.3223 -115.55841,14.3223 -23.75964,0 -99.60577,-6.0774 -118.79853,-20.0513 -18.35978,-13.3675 -41.86136,-61.5414 -16.19962,-101.2111 z"
       id="path3330"
       inkscape:connector-curvature="0"
       sodipodi:nodetypes="zsssssz" />
    <path
       style="color:#000000;fill:#ffffff;fill-opacity:1;fill-rule:nonzero;stroke:none;stroke-width:1px;marker:none;visibility:visible;display:inline;overflow:visible;enable-background:accumulate"
       d="m 417.72679,734.13551 c -12.05809,-65.38983 20.09674,-239.08147 267.2881,-224.77737 247.19117,14.30383 287.3851,96.04109 293.41394,120.56229 6.02925,24.52118 58.28087,163.4745 -134.64876,200.2564 -192.92991,36.78166 -365.76267,-2.04359 -426.05328,-96.04132 z"
       id="path3525"
       inkscape:connector-curvature="0" />
    <flowRoot
       xml:space="preserve"
       id="flowRoot2987-4-9-3"
       style="font-size:12px;font-style:normal;font-variant:normal;font-weight:normal;font-stretch:normal;text-align:center;line-height:125%;letter-spacing:0px;word-spacing:0px;text-anchor:middle;fill:#000000;fill-opacity:1;stroke:none;font-family:Lavi;-inkscape-font-specification:Lavi"
       transform="translate(283.43199,306.19513)"><flowRegion
         id="flowRegion2989-5-4-5"><rect
           id="rect2991-7-9-6"
           width="602.40173"
           height="310.73996"
           x="120.55251"
           y="265.53046"
           style="font-style:normal;font-variant:normal;font-weight:normal;font-stretch:normal;text-align:center;text-anchor:middle;font-family:Lavi;-inkscape-font-specification:Lavi" /></flowRegion><flowPara
         style="font-size:48px;text-align:center;text-anchor:middle"
         id="flowPara3080">...come lez aotrs fais, </flowPara><flowPara
         style="font-size:48px;text-align:center;text-anchor:middle"
         id="flowPara5884">tout le monde </flowPara><flowPara
         style="font-size:48px;text-align:center;text-anchor:middle"
         id="flowPara5886">se saovent cant </flowPara><flowPara
         style="font-size:48px;text-align:center;text-anchor:middle"
         id="flowPara5888">c'ét a nouz</flowPara></flowRoot>    <flowRoot
       transform="translate(198.43199,158.69514)"
       style="font-size:12px;font-style:normal;font-variant:normal;font-weight:normal;font-stretch:normal;text-align:center;line-height:125%;letter-spacing:0px;word-spacing:0px;text-anchor:middle;fill:#000000;fill-opacity:1;stroke:none;font-family:Lavi;-inkscape-font-specification:Lavi"
       id="flowRoot3045"
       xml:space="preserve"><flowRegion
         id="flowRegion3047"><rect
           style="font-style:normal;font-variant:normal;font-weight:normal;font-stretch:normal;text-align:center;text-anchor:middle;font-family:Lavi;-inkscape-font-specification:Lavi"
           y="265.53046"
           x="120.55251"
           height="310.73996"
           width="602.40173"
           id="rect3049" /></flowRegion><flowPara
         id="flowPara3055"
         style="font-size:48px;text-align:center;text-anchor:middle">e v'la :</flowPara></flowRoot>    <path
       style="color:#000000;fill:#ffffff;fill-opacity:1;fill-rule:nonzero;stroke:none;stroke-width:1px;marker:none;visibility:visible;display:inline;overflow:visible;enable-background:accumulate"
       d="m 894.08615,776.05926 c 42.51329,20.49356 123.80235,14.32923 138.26235,-30.35733 -49.15569,36.55167 -109.63611,20.90132 -120.75593,10.89767 -11.11981,-10.00366 -17.50642,19.45966 -17.50642,19.45966 z"
       id="path3978"
       inkscape:connector-curvature="0" />
    <path
       style="color:#000000;fill:#ffffff;fill-opacity:1;fill-rule:nonzero;stroke:none;stroke-width:1px;marker:none;visibility:visible;display:inline;overflow:visible;enable-background:accumulate"
       d="m 1554.582,800.69614 c 57.8977,-100.13054 344.0773,-91.58268 437.1891,-48.20123 93.1111,43.38095 124.7152,118.09307 127.7736,144.60395 3.0584,26.51062 -14.4146,149.42394 -64.4578,173.52484 -50.0428,24.1007 -190.389,36.1509 -239.1803,36.1509 -48.7913,0 -203.7467,-15.3399 -241.3276,-50.6115 -35.9497,-33.7409 -77.8951,-155.33665 -19.997,-255.46696 z"
       id="path3330-3"
       inkscape:connector-curvature="0"
       sodipodi:nodetypes="zsssssz" />
    <path
       style="color:#000000;fill:#ffffff;fill-opacity:1;fill-rule:nonzero;stroke:none;stroke-width:1px;marker:none;visibility:visible;display:inline;overflow:visible;enable-background:accumulate"
       d="m 1441.4333,792.86046 c 1.8123,17.9111 3.4719,36.60072 12.514,52.57918 2.6665,4.48827 5.7379,8.94714 9.7431,12.29849 4.9422,2.55729 10.902,0.92324 14.9972,-2.48609 6.2588,-4.50938 10.9613,-11.84776 18.8831,-13.58596 5.7972,-1.12556 10.4379,3.16953 14.6457,6.42604 10.5623,8.51108 20.0337,18.50261 31.8998,25.28467 12.8634,8.50453 27.0155,16.51979 42.7488,17.47511 6.2316,0.27366 12.7888,-0.31154 18.2031,-3.68195 14.2818,-8.01643 24.173,-24.34511 22.834,-40.90808 -1.8569,-10.48428 -12.9332,-19.03038 -23.5991,-16.39316 -5.6511,1.30784 -9.507,6.21921 -11.5244,11.3814 -5.4816,8.7963 -15.7551,13.86937 -26.0014,13.88113 -8.456,0.14805 -16.8709,-2.36044 -24.0764,-6.73748 -11.3704,-3.36484 -18.2685,-13.64874 -26.3598,-21.52774 -3.7502,-3.54453 -7.9795,-7.06083 -13.0234,-8.42848 -7.6564,-0.23923 -13.3775,5.76673 -17.631,11.40618 -4.5368,5.70318 -9.1549,12.83128 -16.9484,14.04463 -5.2949,1.57023 -8.0628,-4.3141 -11.2198,-7.42808 -8.8564,-11.35341 -14.0534,-25.32791 -16.0433,-39.50562 -0.089,-1.36474 -0.067,-2.72787 -0.042,-4.09419 z"
       id="path4496"
       inkscape:connector-curvature="0"
       inkscape:transform-center-x="-99.717282"
       inkscape:transform-center-y="101.38562" />
    <flowRoot
       xml:space="preserve"
       id="flowRoot2987-4-9-3-8"
       style="font-size:12px;font-style:normal;font-variant:normal;font-weight:normal;font-stretch:normal;text-align:center;line-height:125%;letter-spacing:0px;word-spacing:0px;text-anchor:middle;fill:#000000;fill-opacity:1;stroke:none;font-family:Lavi;-inkscape-font-specification:Lavi"
       transform="translate(1401.5429,499.38886)"><flowRegion
         id="flowRegion2989-5-4-5-8"><rect
           id="rect2991-7-9-6-5"
           width="602.40173"
           height="310.73996"
           x="120.55251"
           y="265.53046"
           style="font-style:normal;font-variant:normal;font-weight:normal;font-stretch:normal;text-align:center;text-anchor:middle;font-family:Lavi;-inkscape-font-specification:Lavi" /></flowRegion><flowPara
         style="font-size:48px;text-align:center;text-anchor:middle"
         id="flowPara3140">En tous lez cas, </flowPara><flowPara
         style="font-size:48px;text-align:center;text-anchor:middle"
         id="flowPara5904">j'ae une petite sonjance </flowPara><flowPara
         style="font-size:48px;text-align:center;text-anchor:middle"
         id="flowPara5906">sus ce qe je vom </flowPara><flowPara
         style="font-size:48px;text-align:center;text-anchor:middle"
         id="flowPara5908">pouair faere od </flowPara><flowPara
         style="font-size:48px;text-align:center;text-anchor:middle"
         id="flowPara5910">ta &quot;pocion&quot; Carote</flowPara></flowRoot>    <path
       style="color:#000000;fill:#ffffff;fill-opacity:1;fill-rule:nonzero;stroke:none;stroke-width:1px;marker:none;visibility:visible;display:inline;overflow:visible;enable-background:accumulate"
       d="m 1746.0146,1129.8242 c 40.9715,-63.6125 269.2027,-71.3309 343.3485,-43.7709 74.1454,27.5598 90.9699,68.1729 94.4185,85.0152 3.4484,16.8421 5.5918,82.4284 -35.0344,115.2396 -31.2137,25.2092 -149.2579,37.9665 -187.193,37.9665 -37.9349,0 -159.0317,-9.7454 -189.675,-32.1533 -29.3136,-21.4355 -66.8365,-98.6846 -25.8646,-162.2971 z"
       id="path3330-7"
       inkscape:connector-curvature="0"
       sodipodi:nodetypes="zsssssz" />
    <flowRoot
       xml:space="preserve"
       id="flowRoot2987-4-9-3-8-9"
       style="font-size:12px;font-style:normal;font-variant:normal;font-weight:normal;font-stretch:normal;text-align:center;line-height:125%;letter-spacing:0px;word-spacing:0px;text-anchor:middle;fill:#000000;fill-opacity:1;stroke:none;font-family:Lavi;-inkscape-font-specification:Lavi"
       transform="translate(1535.828,835.31854)"><flowRegion
         id="flowRegion2989-5-4-5-8-6"><rect
           id="rect2991-7-9-6-5-0"
           width="602.40173"
           height="310.73996"
           x="120.55251"
           y="265.53046"
           style="font-style:normal;font-variant:normal;font-weight:normal;font-stretch:normal;text-align:center;text-anchor:middle;font-family:Lavi;-inkscape-font-specification:Lavi" /></flowRegion><flowPara
         style="font-size:48px;text-align:center;text-anchor:middle"
         id="flowPara3211">...remettom tout </flowPara><flowPara
         style="font-size:48px;text-align:center;text-anchor:middle"
         id="flowPara5917">le cai ici en ordr e rentrom-nouz ! </flowPara></flowRoot>    <flowRoot
       xml:space="preserve"
       id="flowRoot2987-4-9-3-8-9-5"
       style="font-size:12px;font-style:normal;font-variant:normal;font-weight:normal;font-stretch:normal;text-align:center;line-height:125%;letter-spacing:0px;word-spacing:0px;text-anchor:middle;fill:#000000;fill-opacity:1;stroke:none;font-family:Lavi;-inkscape-font-specification:Lavi"
       transform="translate(771.97654,1427.3185)"><flowRegion
         id="flowRegion2989-5-4-5-8-6-3"><rect
           id="rect2991-7-9-6-5-0-1"
           width="602.40173"
           height="310.73996"
           x="120.55251"
           y="265.53046"
           style="font-style:normal;font-variant:normal;font-weight:normal;font-stretch:normal;text-align:center;text-anchor:middle;font-family:Lavi;-inkscape-font-specification:Lavi" /></flowRegion><flowPara
         style="font-size:48px;text-align:center;text-anchor:middle"
         id="flowPara3211-2">Tai le </flowPara></flowRoot>    <path
       style="color:#000000;fill:#ffffff;fill-opacity:1;fill-rule:nonzero;stroke:none;stroke-width:1px;marker:none;visibility:visible;display:inline;overflow:visible;enable-background:accumulate"
       d="m 799.55794,2061.6662 c 41.54476,-24.9583 79.49671,-56.3087 125.21587,-73.8403 l -43.51369,-5.8567 c 12.70794,-14.5474 33.04403,-20.2182 50.79008,-28.9032 l -26.26055,-7.9369 c 30.43962,-33.9774 70.07719,-50.7411 105.26895,-75.8248 l -46.93148,-10.2988 c -32.40962,29.4099 -59.34882,63.5475 -97.91175,87.6396 l 24.81802,10.2865 c -12.06842,10.1205 -24.58698,19.7921 -39.1159,27.4588 l 32.36116,10.2326 z"
       id="path4032"
       inkscape:connector-curvature="0"
       sodipodi:nodetypes="cccccccccccc" />
    <flowRoot
       transform="matrix(0.93080411,0,-0.09044116,1.21695,762.20157,1428.3539)"
       style="font-size:12px;font-style:normal;font-variant:normal;font-weight:normal;font-stretch:normal;text-align:center;line-height:125%;letter-spacing:0px;word-spacing:0px;text-anchor:middle;fill:#000000;fill-opacity:1;stroke:#000000;stroke-width:2.71217394;stroke-miterlimit:4;stroke-opacity:1;stroke-dasharray:none;font-family:Lavi;-inkscape-font-specification:Lavi"
       id="flowRoot4212-3-7-8-6"
       xml:space="preserve"><flowRegion
         id="flowRegion4214-6-7-8-3"><rect
           style="font-style:normal;font-variant:normal;font-weight:normal;font-stretch:normal;text-align:center;text-anchor:middle;stroke:#000000;stroke-width:2.71217394;stroke-miterlimit:4;stroke-opacity:1;stroke-dasharray:none;font-family:Lavi;-inkscape-font-specification:Lavi"
           y="265.53046"
           x="120.55251"
           height="355.03918"
           width="798.1947"
           id="rect4216-4-0-26-5" /></flowRegion><flowPara
         style="font-size:48px;text-align:center;letter-spacing:5.20896292px;text-anchor:middle;stroke:#000000;stroke-width:2.71217394;stroke-miterlimit:4;stroke-opacity:1;stroke-dasharray:none"
         id="flowPara3048">qhui-qhui-maçacr-</flowPara><flowPara
         style="font-size:48px;text-align:center;letter-spacing:5.20896292px;text-anchor:middle;stroke:#000000;stroke-width:2.71217394;stroke-miterlimit:4;stroke-opacity:1;stroke-dasharray:none"
         id="flowPara5919">mort-vivant-bourjoêz !</flowPara></flowRoot>    <path
       style="fill:#ffffff;fill-opacity:1;stroke:none"
       d="m 826.84882,2908.5091 c -28.78194,-8.2569 -39.86465,-15.9326 -34.71629,-20.6627 -11.80514,-2.3572 -16.405,-63.8089 -5.37616,-75.0421 0.73408,-1.1825 5.88563,-4.7306 3.67174,-5.3203 -2.21377,-0.5897 -15.48178,1.1901 -17.7007,-1.1722 -2.21892,-2.3625 19.80671,-36.0561 16.85382,-37.2364 -2.95312,-1.18 -48.71563,-6.0994 -58.31677,-11.4125 -9.60132,-5.3128 -26.49188,8.5045 -29.44314,7.915 3.4829,-17.1304 -30.22459,2.9712 -33.91331,2.3823 -3.68846,-0.589 -10.37554,-18.3124 -14.06417,-18.9012 -3.68873,-0.589 -20.62516,7.6928 -23.57642,7.1037 -2.95127,-0.5893 -1.51852,-15.3628 -5.20724,-15.9515 -3.68863,-0.589 -19.87413,12.4197 -22.08801,11.8302 -2.21382,-0.5899 -10.40961,-30.1308 -14.10158,-31.9014 -3.69205,-1.7707 -27.19067,32.5147 -29.40124,33.1069 -2.21038,0.5921 -16.33721,-40.1728 -19.28858,-40.7622 -2.95125,-0.5892 -17.618,27.7825 -19.83194,27.1929 -2.21386,-0.5897 -16.27151,-17.1277 -19.22437,-18.3077 -2.95296,-1.1802 -22.01722,36.6481 -24.96671,36.6498 -2.94968,0 -28.06645,-15.9392 -30.28714,-18.8924 -2.22062,-2.9533 -4.38037,15.366 -7.32996,15.3676 -2.9496,0 -36.8999,-10.6162 -37.63573,-10.0249 -0.73563,0.5914 5.19559,11.8154 2.98343,11.8167 -2.21216,0 -36.91174,-14.7528 -38.37824,-11.7973 -1.4662,2.9553 -75.25603,-14.7314 -80.41103,-12.3651 -5.155,2.3666 33.321,48.4362 29.6443,51.9836 -3.67687,3.5475 -16.96194,-0.5816 -17.69421,1.1915 -0.73226,1.7732 8.13835,9.4501 5.9331,11.8149 -2.2056,2.3648 -27.24992,11.8331 -29.45355,14.7886 -2.20381,2.956 11.09119,10.6304 8.14677,12.4049 -2.94462,1.7744 -46.41879,13.0254 -47.14768,15.9803 -0.72889,2.9548 22.17066,17.1239 19.23298,21.2619 -2.93777,4.138 -11.04403,5.9151 -10.29818,8.8693 0.74586,2.9542 14.76648,6.4919 14.03749,9.4469 -0.72907,2.955 -8.06071,17.7316 -10.26612,20.0964 -2.20543,2.3648 15.4886,1.1733 15.49535,3.5369 0.006,2.3637 11.70776,17.1054 -28.19588,52.7368 61.30373,-27.5339 65.95135,-0.7575 90.29866,3.9563 24.34757,4.7141 14.84569,34.2645 18.53765,36.0352 3.69208,1.7708 30.9419,-10.0623 34.64071,-5.9281 3.69872,4.1345 5.19539,11.8153 8.14507,11.8138 2.94942,0 27.41761,-12.0621 31.10613,-11.4733 30.52071,-8.3808 42.16312,18.2988 36.02852,22.6638 5.16335,0.588 25.04255,-10.0593 29.46527,-10.6525 4.42267,-0.5933 8.15173,14.1772 11.83536,12.9935 3.68363,-1.1836 27.24974,-11.8331 30.93993,-10.6533 3.69039,1.1799 6.65347,5.9055 9.59977,4.7219 2.94601,-1.1833 16.20569,-5.9178 16.20569,-5.9178 0,0 9.59619,3.5402 14.02054,3.5378 4.42432,0 21.06027,-14.9831 24.74388,-16.167 3.6836,-1.1837 37.77994,5.2023 53.63303,41.6326 -8.97279,-42.9439 26.27189,-46.7955 31.4286,-48.5711 5.15662,-1.7755 20.65716,3.5341 22.12668,1.7606 1.46979,-1.7736 5.86712,-11.2303 10.28989,-11.8237 4.42267,-0.5933 14.73933,-2.9625 14.73933,-2.9625 l -1.4848,-3.5447 c 0,0 30.99734,9.4374 34.69448,12.9809 3.69703,3.5434 -2.2561,-15.3622 -4.48178,-20.0883 13.28642,4.7201 52.39697,14.744 55.35488,17.697 2.95804,2.9528 -5.19192,-10.6337 -9.62817,-14.7676 5.90416,1.7697 11.06761,2.3578 11.06761,2.3578 l -17.0005,-14.1725 5.15844,-1.1847 c 0,0 -11.07941,-6.494 -11.08788,-9.4486 -0.008,-2.9544 28.7396,-6.5157 28.7396,-6.5157 0,0 -11.81349,-5.3116 -8.87239,-8.2677 2.94134,-2.9562 10.3101,-4.7329 10.3101,-4.7329 l 1.45281,-7.6826 z"
       id="path5888"
       inkscape:connector-curvature="0"
       sodipodi:nodetypes="ccccccccccsccccsccccccsccsccscsccccscccscccccscccccsccccscccccccccccc" />
    <flowRoot
       xml:space="preserve"
       id="flowRoot2987-4-9-3-0"
       style="font-size:12px;font-style:normal;font-variant:normal;font-weight:normal;font-stretch:normal;text-align:center;line-height:125%;letter-spacing:0px;word-spacing:0px;text-anchor:middle;fill:#000000;fill-opacity:1;stroke:none;font-family:Lavi;-inkscape-font-specification:Lavi"
       transform="translate(120.66404,2524.3888)"><flowRegion
         id="flowRegion2989-5-4-5-1"><rect
           id="rect2991-7-9-6-4"
           width="602.40173"
           height="310.73996"
           x="120.55251"
           y="265.53046"
           style="font-style:normal;font-variant:normal;font-weight:normal;font-stretch:normal;text-align:center;text-anchor:middle;font-family:Lavi;-inkscape-font-specification:Lavi" /></flowRegion><flowPara
         style="font-size:48px;text-align:center;letter-spacing:1.5px;text-anchor:middle;stroke:#000000;stroke-width:1.10000002;stroke-miterlimit:4;stroke-opacity:1;stroke-dasharray:none"
         id="flowPara4086">Ella te haeteraet d'assaeyer la darraene pocion ?…</flowPara></flowRoot>    <path
       style="fill:#ffffff;fill-opacity:1;stroke:none"
       d="m 1797.6547,3225.4129 c 73.7704,9.6918 48.9537,-28.0874 44.2546,-32.7703 17.9665,7.8584 48.5789,-0.7879 16.736,-28.141 45.2433,10.9794 23.0965,5.8021 -3.2282,-23.6414 39.8513,14.9718 64.9815,5.5016 36.6743,-15.2549 40.6609,26.6893 54.9896,18.1687 29.0566,-14.9728 51.1333,34.3277 41.5648,21.3993 29.104,4.4475 42.5828,30.9404 10.937,-15.103 14.1931,-15.3523 3.256,-0.2495 17.0337,8.1036 19.6516,7.802 2.6176,-0.3016 2.9544,-13.1762 6.2105,-13.4255 3.256,-0.2496 15.8789,12.1377 17.8585,11.7839 7.6796,4.3474 15.7664,-22.4007 15.613,-26.5901 -3.2734,3.6332 15.4767,33.4089 21.918,30.6954 1.8503,0.6674 23.6536,-34.2845 21.0495,-33.8862 -4.8569,0.7425 9.8426,25.6033 14.2652,24.9082 3.5168,4.6056 18.0403,-6.8049 18.5969,-14.476 -1.3679,2.1706 10.703,36.5109 17.7008,33.4466 3.1586,6.4408 26.5257,-6.374 28.236,-14.2026 2.2377,-2.3972 2.1518,13.5943 4.7049,13.8034 -4.5051,7.8805 28.3361,-1.4273 33.6509,-6.018 0.5739,0.5632 -3.1681,8.375 -3.844,10.007 -3.6431,8.7953 26.3816,0.9527 34.4828,-7.4981 -31.2433,42.1722 59.9561,0.8633 70.931,-5.0298 4.21,2.4093 -34.0164,39.5334 -31.2122,42.8596 2.8043,3.3262 14.746,0.6914 15.1904,2.2769 0.4446,1.5846 -8.0541,7.5979 -6.3976,9.7978 1.6569,2.1999 22.3266,12.1499 23.9189,14.8605 1.5922,2.711 -10.7365,8.4105 -8.3768,10.1521 2.3597,1.7416 38.7934,14.5304 39.1089,17.1365 0.3157,2.6062 -21.0208,13.2451 -18.9192,17.0297 2.1014,3.7847 8.929,5.892 7.9681,8.3938 -0.9611,2.5017 -13.4762,4.5734 -13.1606,7.1797 0.3157,2.6063 5.085,15.8989 6.7418,18.0987 1.6568,2.2002 -13.5334,-0.076 -13.7915,1.9673 -0.264,2.0428 -40.8446,9.3575 22.0371,47.7669 -68.2975,-24.5291 -60.2706,-5.4822 -81.8511,-3.1207 -21.5807,2.3617 -16.5097,28.581 -19.8948,29.8521 -3.385,1.271 -25.7116,-10.8788 -29.355,-7.5646 -3.6435,3.3142 -5.759,9.8502 -8.3125,9.641 -2.553,-0.2077 -22.4472,-12.3597 -25.7031,-12.1104 -25.5268,-9.395 -38.4536,12.8532 -33.6089,17.0593 -4.5327,0.1449 -20.6054,-10.4608 -24.3707,-11.2851 -3.7653,-0.8245 -8.5704,11.6842 -11.6328,10.4013 -3.0625,-1.2828 -22.3265,-12.15 -25.647,-11.3895 -3.3208,0.7602 -6.3903,4.6377 -8.8144,3.4066 -2.4242,-1.2304 -13.3974,-6.2576 -13.3974,-6.2576 0,0 -8.6853,2.3854 -12.5151,2.0717 -3.8301,-0.3115 -27.8705,-19.3127 -30.9328,-20.5957 -3.0626,-1.2829 -56.6777,25.4418 -55.15,28.6635 1.5277,3.2218 -2.2335,-33.8784 -6.508,-35.7767 -4.2744,-1.8983 -18.2599,1.6013 -19.3426,-0.036 -1.0832,-1.6369 -3.8803,-10.123 -7.6457,-10.9476 -3.7654,-0.8244 -12.4434,-3.5992 -12.4434,-3.5992 l 1.6639,-2.9605 c 0,0 -27.8417,5.9777 -31.4205,8.7812 -3.5789,2.8033 3.5931,-13.1239 6.0246,-17.0537 -12.0059,3.1459 -46.9337,9.0592 -49.8094,11.4041 -2.8761,2.3448 5.6296,-8.8287 9.9114,-12.0906 -5.3,1.1144 -9.8328,1.2593 -9.8328,1.2593 l 16.2301,-11.057 -4.3393,-1.3874 c 0,0 10.2848,-4.835 10.6074,-7.3891 0.3268,-2.5534 -24.1839,-7.657 -24.1839,-7.657 74.893,1.4165 20.5779,-17.4118 -8.6495,-23.4165 z"
       id="path5888-2"
       inkscape:connector-curvature="0"
       sodipodi:nodetypes="ccccccccsccccsccccccsccsccscsccccscccscccccscccccsccccsccccccccc" />
    <path
       style="color:#000000;fill:#ffffff;fill-opacity:1;fill-rule:nonzero;stroke:none;stroke-width:1px;marker:none;visibility:visible;display:inline;overflow:visible;enable-background:accumulate"
       d="m 1949.2127,3186.2754 c -39.3897,38.4564 -118.4251,55.0326 -170.6211,-13.769 -46.1636,-0.3962 -81.2149,-5.1531 -119.4658,-62.8545 37.6962,38.0583 63.3903,55.3293 131.4185,51.4723 32.2972,32.3957 87.7359,29.3893 125.5394,-24.8478 37.8036,-54.2372 22.7273,-42.2473 22.7273,-42.2473 l 22.0999,76.6516 z"
       id="path5074-3"
       inkscape:connector-curvature="0"
       sodipodi:nodetypes="ccccsccc" />
    <flowRoot
       xml:space="preserve"
       id="flowRoot2987-4-9-3-0-3"
       style="font-size:12px;font-style:normal;font-variant:normal;font-weight:normal;font-stretch:normal;text-align:center;line-height:125%;letter-spacing:0px;word-spacing:0px;text-anchor:middle;fill:#000000;fill-opacity:1;stroke:none;font-family:Lavi;-inkscape-font-specification:Lavi"
       transform="translate(1645.3918,2906.6214)"><flowRegion
         id="flowRegion2989-5-4-5-1-6"><rect
           id="rect2991-7-9-6-4-7"
           width="602.40173"
           height="310.73996"
           x="120.55251"
           y="265.53046"
           style="font-style:normal;font-variant:normal;font-weight:normal;font-stretch:normal;text-align:center;text-anchor:middle;font-family:Lavi;-inkscape-font-specification:Lavi" /></flowRegion><flowPara
         style="font-size:48px;text-align:center;letter-spacing:1.5px;text-anchor:middle;stroke:#000000;stroke-width:1.10000002;stroke-miterlimit:4;stroke-opacity:1;stroke-dasharray:none"
         id="flowPara4202">... t'és pas jeïney, </flowPara><flowPara
         style="font-size:48px;text-align:center;letter-spacing:1.5px;text-anchor:middle;stroke:#000000;stroke-width:1.10000002;stroke-miterlimit:4;stroke-opacity:1;stroke-dasharray:none"
         id="flowPara5928">haou ?</flowPara></flowRoot>    <path
       style="color:#000000;fill:#ffffff;fill-opacity:1;fill-rule:nonzero;stroke:none;stroke-width:1px;marker:none;visibility:visible;display:inline;overflow:visible;enable-background:accumulate"
       d="m 432.9877,1582.757 c -4.62527,14.1556 -29.80658,59.4538 -38.06244,16.2093 -42.3877,66.8706 -90.94164,55.4388 -139.14497,48.4577 -9.52731,19.5362 -7.09875,46.1647 -46.96241,47.7053 7.95498,15.9183 -3.45476,30.2003 -32.14335,43.0229 40.98017,2.4517 49.77676,11.6093 -21.84737,37.5242 55.93525,-9.943 108.31222,-17.9855 48.57741,33.848 20.66662,-3.1249 64.61473,-45.2102 55.82445,54.2176 30.8443,-37.3814 66.03449,-61.6079 122.59982,-7.3014 10.83096,-28.0111 30.03942,-49.2804 76.82521,-23.2543 5.27288,-26.7184 55.3579,-38.7619 74.64488,-37.3629 -41.4714,-20.5081 -42.72921,-38.0996 7.62637,-50.843 -92.48457,-33.4472 -21.82215,-39.6374 -9.97409,-55.1095 -69.36813,-4.1008 -42.62685,-31.5667 -33.87821,-55.3999 -76.91874,14.4742 -56.82784,-24.9365 -64.0853,-51.714 z"
       id="path3549-3"
       inkscape:connector-curvature="0"
       sodipodi:nodetypes="ccccccccccccccc" />
    <flowRoot
       transform="matrix(1.8217115,0,-0.17700578,1.8738433,-523.05413,1190.8474)"
       style="font-size:12px;font-style:normal;font-variant:normal;font-weight:normal;font-stretch:normal;text-align:center;line-height:125%;letter-spacing:0px;word-spacing:0px;text-anchor:middle;fill:#000000;fill-opacity:1;stroke:#000000;stroke-width:2.71217394;stroke-miterlimit:4;stroke-opacity:1;stroke-dasharray:none;font-family:Lavi;-inkscape-font-specification:Lavi"
       id="flowRoot4212-3-7-8-6-5"
       xml:space="preserve"><flowRegion
         id="flowRegion4214-6-7-8-3-6"><rect
           style="font-style:normal;font-variant:normal;font-weight:normal;font-stretch:normal;text-align:center;text-anchor:middle;stroke:#000000;stroke-width:2.71217394;stroke-miterlimit:4;stroke-opacity:1;stroke-dasharray:none;font-family:Lavi;-inkscape-font-specification:Lavi"
           y="265.53046"
           x="120.55251"
           height="355.03918"
           width="798.1947"
           id="rect4216-4-0-26-5-2" /></flowRegion><flowPara
         style="font-size:48px;text-align:center;letter-spacing:1.45219982px;text-anchor:middle;stroke:#000000;stroke-width:2.71217394;stroke-miterlimit:4;stroke-opacity:1;stroke-dasharray:none"
         id="flowPara4358-7-1-6">HAO !</flowPara></flowRoot>    <flowRoot
       xml:space="preserve"
       id="flowRoot4133-6-9-4-8-5-3"
       style="font-size:12px;font-style:normal;font-variant:normal;font-weight:normal;font-stretch:normal;line-height:125%;letter-spacing:0.00204969px;word-spacing:0px;color:#000000;fill:#ffffff;fill-opacity:1;fill-rule:nonzero;stroke:#ffffff;stroke-width:0.0836072;stroke-linecap:butt;stroke-linejoin:miter;stroke-miterlimit:4;stroke-opacity:1;stroke-dasharray:none;stroke-dashoffset:0;marker:none;visibility:visible;display:inline;overflow:visible;filter:url(#filter4375-4-1-1-15-1-3-3);enable-background:accumulate;font-family:Arial;-inkscape-font-specification:Arial"
       transform="matrix(8.3099216,-5.4900388,-0.26452567,16.18078,-7093.1327,-9087.3999)"><flowRegion
         id="flowRegion4135-2-9-3-5-2-6"
         style="stroke-width:0.86646658"><rect
           id="rect4137-1-7-1-2-1-4"
           width="200.00224"
           height="39.051064"
           x="1125.3193"
           y="1078.5308"
           style="letter-spacing:0.00204969px;color:#000000;fill:#ffffff;fill-opacity:1;fill-rule:nonzero;stroke:#ffffff;stroke-width:0.0836072;stroke-linecap:butt;stroke-linejoin:miter;stroke-miterlimit:4;stroke-opacity:1;stroke-dasharray:none;stroke-dashoffset:0;marker:none;visibility:visible;display:inline;overflow:visible;filter:url(#filter4375-4-1-1-15-1-3-3);enable-background:accumulate" /></flowRegion><flowPara
         id="flowPara4139-2-8-6-8-6-3"
         style="font-size:17.85409164px;font-style:normal;font-variant:normal;font-weight:normal;font-stretch:normal;line-height:125%;letter-spacing:0.00204969px;word-spacing:0.00204969px;color:#000000;fill:#ffffff;fill-opacity:1;fill-rule:nonzero;stroke:#ffffff;stroke-width:0.0836072;stroke-linecap:butt;stroke-linejoin:miter;stroke-miterlimit:4;stroke-opacity:1;stroke-dasharray:none;stroke-dashoffset:0;marker:none;visibility:visible;display:inline;overflow:visible;enable-background:accumulate;font-family:Lavi;-inkscape-font-specification:Lavi">C<flowSpan
   style="font-size:13.08514309px"
   id="flowSpan3116">R</flowSpan><flowSpan
   id="flowSpan3122"
   style="font-size:8.7063818px">AC</flowSpan><flowSpan
   id="flowSpan3126"
   style="font-size:7.83930063px">K !</flowSpan></flowPara></flowRoot>  </g>
  <g
     inkscape:groupmode="layer"
     id="layer3"
     inkscape:label="speechbubbles" />
</svg>
